X1,X2,X3,X4,X5,X6,Y
43,349.122,240.403,3742,572059,572059,12
98,550.462,551.516,7855,608827,232550,20
101,482.532,681.115,4990,626932,411955,30
100,461.78,721.835,7594,642200,358394,35
197,563.298,882.769,8784,754844,391936,76
134,533.943,728.524,9301,783600,627045,48
229,712.88,1056.668,11207,902195,487465,100
83,741.841,834.501,8473,1048319,953295,41
142,843.876,970.518,9725,1211537,1109179,52
171,985.775,1244.631,13216,1235786,731352,51
194,984.829,1106.776,14948,1274923,512592,58
260,942.983,1393.702,14729,1293953,859104,81
254,1315.819,1717.743,19171,1711263,1192706,78
411,1292.036,1415.954,20302,1808344,833378,114
521,1271.365,1579.258,23942,1819046,1364835,185
395,1548.097,1326.247,19354,1998257,1829781,133
296,1582.599,2128.81,24696,2233169,1970935,70
704,1862.43,1961.171,31648,2673400,1401840,236
461,1979.746,2408.2,29172,2688418,1920081,121
900,1896.008,1991.65,39431,2844658,1388560,317
390,2003.723,3509.431,31538,2926324,1786683,91
291,2694.574,3106.346,31608,3405565,2986850,112
456,2625.856,3078.68,35598,3421399,2692680,159
774,2369.621,3235.64,46443,3450654,2254566,245
1046,2972.369,3317.101,49551,4012012,2427021,413
964,2823.454,3372.512,47322,4041769,2251967,269
665,3205.054,2031.703,45891,4301261,3634746,225
1154,3613.138,4588.837,59035,4447100,2465539,394
904,3169.627,3822.639,44607,4468976,3246994,345
567,3083.007,4782.252,56570,4919479,3489319,170
1150,3783.927,3985.162,57336,5130632,4523513,376
643,3594.251,4192.508,55284,5296486,4558448,231
792,3910.188,4937.877,60399,5363675,3665137,318
1130,4047.652,4889.615,68994,5595211,3881133,388
1288,4247.884,5143.321,70943,5689283,3618968,454
563,4504.581,5695.463,55673,5894121,4832415,223
947,4521.329,5678.318,72713,6080485,4303180,254
476,4645.857,5593.154,54771,6349097,5803451,181
925,5112.523,6572.883,78877,7078515,5166427,307
1557,6122.137,6298.836,95903,8049313,4847075,496
1634,5793.143,8011.804,112620,8186453,5866567,450
731,5799.532,6374.167,72844,8414350,7938850,227
1159,7103.404,8627.477,103326,9938444,7419524,367
1286,7675.007,10934.942,111654,11353140,8780237,418
1490,8430.142,10113.463,108070,12281054,9461086,541
1356,8057.683,9507.663,109135,12419293,10910332,517
3244,13146.357,15519.408,196444,15982378,14274392,1053
1493,11246.675,11268.933,137898,18976457,16601126,494
3583,14543.528,17193.706,231008,20851820,17204073,1417
4120,22761.088,32026.125,328917,33871648,31994895,1367
